[gd_scene load_steps=3 format=2]

[ext_resource path="res://scenes/agent/agent.gd" type="Script" id=1]
[ext_resource path="res://art/agent.png" type="Texture" id=2]

[node name="Agent" type="KinematicBody2D"]

input_pickable = false
collision_layer = 1
collision_mask = 1
collision/safe_margin = 0.08
script = ExtResource( 1 )
_sections_unfolded = [ "Collision", "Material", "Transform", "Visibility", "Z Index", "collision" ]
mass = 12
max_force = 8
max_speed = 200

[node name="Sprite" type="Sprite" parent="." index="0"]

texture = ExtResource( 2 )

[node name="VisibilityNotifier2D" type="VisibilityNotifier2D" parent="." index="1"]

rect = Rect2( -10, -10, 20, 20 )


